{
  "profiles": {
    "HR.LeaveManagement.Identity": {
      "commandName": "Project",
      "launchBrowser": true,
      "environmentVariables": {
        "ASPNETCORE_ENVIRONMENT": "Development"
      },
      "applicationUrl": "https://localhost:61239;http://localhost:61242"
    }
  }
}